Place,Name,State,WeightClassKg,BodyweightKg,BirthDate,Age,Squat1Kg,Squat2Kg,Squat3Kg,Best3SquatKg,Bench1Kg,Bench2Kg,Bench3Kg,Best3BenchKg,Deadlift1Kg,Deadlift2Kg,Deadlift3Kg,Best3DeadliftKg,TotalKg,Event,Equipment,Sex,Division
1,Rayelynn Hartman,WY,90+,102.4,,15,87.5,97.5,105,105,40,45,-52.5,45,110,120,125,125,275,SBD,Raw,F,Juniors 13-15
1,Collette Thepenier,CO,67.5,65.6,,42,85,95,-100,95,42.5,47.5,50,50,105,115,120,120,265,SBD,Raw,F,Open
1,Meagan Phillips,WY,75,74.3,,29,122.5,130,137.5,137.5,75,-77.5,-77.5,75,142.5,152.5,-162.5,152.5,365,SBD,Raw,F,Open
2,Maddilynn Packard,NE,75,68.4,,23,92.5,102.5,112.5,112.5,47.5,52.5,57.5,57.5,110,120,130,130,300,SBD,Raw,F,Open
1,Jenny Saller,CO,90+,112,,44,105,112.5,122.5,122.5,70,75,80,80,135,142.5,152.5,152.5,355,SBD,Raw,F,Open
2,Morgan Vigil,CO,90+,127,,30,112.5,120,132.5,132.5,42.5,50,62.5,62.5,140,150,-155,150,345,SBD,Raw,F,Open
1,Lynette Hartman,WY,90,87.3,,38,117.5,125,-137.5,125,62.5,67.5,-72.5,67.5,135,142.5,147.5,147.5,340,SBD,Raw,F,Submasters 35-39
1,Collette Thepenier,CO,67.5,65.6,,42,85,95,-100,95,42.5,47.5,50,50,105,115,120,120,265,SBD,Raw,F,Masters 40-44
1,Sharla Allen,WY,82.5,79.5,,59,62.5,67.5,-72.5,67.5,52.5,55,-57.5,55,90,95,100,100,222.5,SBD,Raw,F,Masters 55-59
1,Jenny Saller,CO,90+,112,,44,105,112.5,122.5,122.5,70,75,80,80,135,142.5,152.5,152.5,355,SBD,Raw,F,Masters 40-44
1,Rolland Hartman,WY,90,86.7,,13,140,147.5,155,155,67.5,82.5,-92.5,82.5,152.5,165,-185,165,402.5,SBD,Raw,M,Juniors 13-15
1,Ryan Andren,WY,90,84.7,,21,205,215,-230,215,122.5,-132.5,-132.5,122.5,240,252.5,260,260,597.5,SBD,Raw,M,Juniors 20-23
2,Nick Weimer,CO,90,87,,21,180,192.5,195,195,-127.5,132.5,-137.5,132.5,192.5,-205,-205,192.5,520,SBD,Raw,M,Juniors 20-23
1,Paul Mcginnis,CO,140,139.6,,20,190,205,220,220,-135,142.5,150,150,180,205,220,220,590,SBD,Raw,M,Juniors 20-23
1,Zachary Packard,NE,82.5,80.3,,26,195,210,-227.5,210,145,155,165,165,245,257.5,272.5,272.5,647.5,SBD,Raw,M,Open
1,Nathan Webster,CO,90,85.5,,25,235,247.5,252.5,252.5,157.5,-160,162.5,162.5,232.5,245,-250,245,660,SBD,Raw,M,Open
2,Ryan Betita,CO,90,87.9,,29,185,190,-195,190,140,147.5,-152.5,147.5,205,212.5,217.5,217.5,555,SBD,Raw,M,Open
1,Dylan Giardina,CO,110,108.7,,24,247.5,-260,-265,247.5,150,160,-167.5,160,-252.5,267.5,280,280,687.5,SBD,Raw,M,Open
2,Chris Dutcher,WY,110,109.2,,35,205,215,222.5,222.5,-137.5,137.5,147.5,147.5,237,247.5,260,260,630,SBD,Raw,M,Open
3,Gerald Miller,WY,110,103.4,,34,157.5,175,182.5,182.5,102.5,112.5,-117.5,112.5,185,200,-215,200,495,SBD,Raw,M,Open
1,Joe Tallan,CO,125,123.7,,27,262.5,275,287.5,287.5,197.5,210,215,215,277.5,-290,290,290,792.5,SBD,Raw,M,Open
1,Jordan Hakala,WY,140+,142.7,,27,125,170,190,190,125,142.5,150,150,205,255,260,260,600,SBD,Raw,M,Open
DQ,Brandon Moser,WY,100,98,,37,-115,120,-142.5,120,90,100,-115,100,-175,-185,-185,,,SBD,Raw,M,Submasters 35-39
1,Chris Dutcher,WY,110,109.2,,35,205,215,222.5,222.5,-137.5,137.5,147.5,147.5,237,247.5,260,260,630,SBD,Raw,M,Submasters 35-39
1,Refugio Cerenil,WY,100,99.5,,41,172.5,185,192.5,192.5,147.5,157.5,-170,157.5,165,192.5,200,200,550,SBD,Raw,M,Masters 40-44
1,Marvin Schutz,WY,110,102.5,,69,102.5,105,107.5,107.5,87.5,90,92.5,92.5,142.5,150,157.5,157.5,357.5,SBD,Raw,M,Masters 65-69
1,Shawn Nunley,WY,125,122.2,,48,192.5,210,220,220,175,185,-190,185,220,230,237.5,237.5,642.5,SBD,Raw,M,Masters 45-49
1,Melissa Page,WY,90+,176.9,,36,,,,,90,92.5,97.5,97.5,,,,,97.5,B,Raw,F,Submasters 35-39
1,Patricia Corrigan,WY,75,73.5,,79,,,,,25,30,-32.5,30,,,,,30,B,Raw,F,Masters 75-79
1,Sharla Allen,WY,82.5,79.5,,59,,,,,52.5,55,-57.5,55,,,,,55,B,Raw,F,Masters 55-59
1,Refugio Cerenil,WY,100,99.5,,41,,,,,147.5,157.5,-170,157.5,,,,,157.5,B,Raw,M,Masters 40-44
1,Shawn Nunley,WY,125,122.2,,48,,,,,175,185,-190,185,,,,,185,B,Raw,M,Masters 45-49
1,Patricia Corrigan,WY,75,73.5,,79,,,,,,,,,60,65,67.5,67.5,67.5,D,Raw,F,Masters 75-79
1,Sharla Allen,WY,82.5,79.5,,59,,,,,,,,,90,95,100,100,100,D,Raw,F,Masters 55-59
1,Chris Dutcher,WY,110,109.2,,35,,,,,,,,,237,247.5,260,260,260,D,Raw,M,Open
1,Jordan Hakala,WY,140+,142.7,,27,,,,,,,,,205,255,260,260,260,D,Raw,M,Open
1,Chris Dutcher,WY,110,109.2,,35,,,,,,,,,237,247.5,260,260,260,D,Raw,M,Submasters 35-39
1,Shawn Nunley,WY,125,122.2,,48,,,,,,,,,220,230,237.5,237.5,237.5,D,Raw,M,Masters 45-49
